<?xml version="1.0" encoding="UTF-8" standalone="no"?>
<!DOCTYPE svg PUBLIC "-//W3C//DTD SVG 1.0//EN" "http://www.w3.org/TR/2001/REC-SVG-20010904/DTD/svg10.dtd">
<!-- Создано Microsoft Visio 11.0, Экспорт SVG, версия 1.0 UserCase.svg Page-1 -->
<svg xmlns="http://www.w3.org/2000/svg" xmlns:xlink="http://www.w3.org/1999/xlink" xmlns:ev="http://www.w3.org/2001/xml-events"
		xmlns:v="http://schemas.microsoft.com/visio/2003/SVGExtensions/" width="16.0354in" height="22.8858in"
		viewBox="0 0 1154.55 1647.78" xml:space="preserve" color-interpolation-filters="sRGB" class="st9">
	<v:documentProperties v:langID="1049" v:metric="true" v:viewMarkup="false">
		<v:userDefs>
			<v:ud v:nameU="msvNoAutoConnect" v:val="VT0(1):26"/>
		</v:userDefs>
	</v:documentProperties>

	<style type="text/css">
	<![CDATA[
		.st1 {fill:#ffffff;stroke:#000000;stroke-linecap:round;stroke-linejoin:round;stroke-width:0.75}
		.st2 {fill:#000000;font-family:Calibri;font-size:1.16666em;font-stretch:semi-expanded}
		.st3 {fill:#000000;font-family:Calibri;font-size:0.833336em}
		.st4 {marker-end:url(#mrkr14-37);stroke:#000000;stroke-linecap:round;stroke-linejoin:round;stroke-width:0.75}
		.st5 {fill:#000000;fill-opacity:1;stroke:#000000;stroke-opacity:1;stroke-width:0.22935779816514}
		.st6 {stroke:#000000;stroke-linecap:round;stroke-linejoin:round;stroke-width:0.75}
		.st7 {marker-end:url(#mrkr1-60);stroke:#000000;stroke-dasharray:5.25,3.75;stroke-linecap:round;stroke-linejoin:round;stroke-width:0.75}
		.st8 {fill:#ffffff;stroke:none;stroke-linecap:butt;stroke-width:7.2}
		.st9 {fill:none;fill-rule:evenodd;font-size:12px;overflow:visible;stroke-linecap:square;stroke-miterlimit:3}
	]]>
	</style>

	<defs id="Patterns_And_Gradients">
		<linearGradient id="grad29-11" v:fillPattern="29" v:foreground="#fefefe" v:background="#ffffff" x1="0" y1="0" x2="0" y2="1">
			<stop offset="0" style="stop-color:#ffffff;stop-opacity:1"/>
			<stop offset="0.5" style="stop-color:#fefefe;stop-opacity:1"/>
			<stop offset="1" style="stop-color:#ffffff;stop-opacity:1"/>
		</linearGradient>
		<linearGradient id="grad30-15" v:fillPattern="30" v:foreground="#fefefe" v:background="#ffffff" x1="0" y1="1" x2="0" y2="0">
			<stop offset="0" style="stop-color:#fefefe;stop-opacity:1"/>
			<stop offset="1" style="stop-color:#ffffff;stop-opacity:1"/>
		</linearGradient>
	</defs>
	<defs id="Markers">
		<g id="lend14">
			<path d="M 3 -1 L 0 0 L 3 1 L 3 -1 " style="stroke-linecap:round;stroke-linejoin:round;fill:none"/>
		</g>
		<marker id="mrkr14-37" class="st5" v:arrowType="14" v:arrowSize="2" v:setback="13.08" refX="-13.08" orient="auto"
				markerUnits="strokeWidth" overflow="visible">
			<use xlink:href="#lend14" transform="scale(-4.36,-4.36) "/>
		</marker>
		<g id="lend1">
			<path d="M 1 -1 L 0 0 L 1 1 " style="stroke-linecap:round;stroke-linejoin:round;fill:none"/>
		</g>
		<marker id="mrkr1-60" class="st5" v:arrowType="1" v:arrowSize="2" orient="auto" markerUnits="strokeWidth"
				overflow="visible">
			<use xlink:href="#lend1" transform="scale(-4.36,-4.36) "/>
		</marker>
	</defs>
	<g v:mID="0" v:index="1" v:groupContext="foregroundPage">
		<title>Page-1</title>
		<v:pageProperties v:drawingScale="0.0393701" v:pageScale="0.0393701" v:drawingUnits="24" v:shadowOffsetX="8.50394"
				v:shadowOffsetY="-8.50394"/>
		<v:layer v:name="Блок-схема" v:index="0"/>
		<v:layer v:name="Соединительная линия" v:index="1"/>
		<v:layer v:name="Контейнер" v:index="2"/>
		<g id="group170-1" transform="translate(281.761,-630.783)" v:mID="170" v:groupContext="group" v:layerMember="2">
			<v:userDefs>
				<v:ud v:nameU="msvShapeCategories" v:prompt="" v:val="VT0(0):26"/>
				<v:ud v:nameU="msvStructureType" v:prompt="" v:val="VT4(Container)"/>
				<v:ud v:nameU="msvSDContainerMargin" v:prompt="" v:val="VT0(0.11811023622047):24"/>
				<v:ud v:nameU="msvSDContainerResize" v:prompt="" v:val="VT0(1):26"/>
				<v:ud v:nameU="msvSDContainerLocked" v:prompt="" v:val="VT0(0):5"/>
				<v:ud v:nameU="msvSDContainerNoHighlight" v:prompt="" v:val="VT0(0):5"/>
				<v:ud v:nameU="msvSDContainerNoRibbon" v:prompt="" v:val="VT0(0):5"/>
				<v:ud v:nameU="msvSDContainerStyle" v:prompt="" v:val="VT0(1):26"/>
				<v:ud v:nameU="msvSDContainerStyleCount" v:prompt="" v:val="VT0(1):26"/>
				<v:ud v:nameU="msvSDContainerRequiredCategories" v:prompt="" v:val="VT0(0):26"/>
				<v:ud v:nameU="msvSDContainerExcludedCategories" v:prompt="" v:val="VT4(DoNotContain)"/>
				<v:ud v:nameU="msvSDHeadingStyle" v:prompt="" v:val="VT0(1):26"/>
				<v:ud v:nameU="msvSDHeadingStyleCount" v:prompt="" v:val="VT0(4):26"/>
				<v:ud v:nameU="HeadingSide" v:prompt="" v:val="VT0(0):26"/>
				<v:ud v:nameU="HeadingSpan" v:prompt="" v:val="VT0(0):26"/>
				<v:ud v:nameU="HeadingAlign" v:prompt="" v:val="VT0(0):26"/>
				<v:ud v:nameU="RTL" v:prompt="" v:val="VT0(0):5"/>
				<v:ud v:nameU="FnForceContrast" v:prompt="" v:val="VT5(#ffffff)"/>
				<v:ud v:nameU="BaseColor" v:prompt="" v:val="VT0(1):26"/>
				<v:ud v:nameU="HColor1" v:prompt="" v:val="VT5(#ffffff)"/>
				<v:ud v:nameU="HColor2" v:prompt="" v:val="VT5(#fefefe)"/>
				<v:ud v:nameU="HColor3" v:prompt="" v:val="VT5(#e9e9e9)"/>
				<v:ud v:nameU="HColor4" v:prompt="" v:val="VT5(#efefef)"/>
				<v:ud v:nameU="BColor1" v:prompt="" v:val="VT5(#ffffff)"/>
				<v:ud v:nameU="BColor2" v:prompt="" v:val="VT5(#ffffff)"/>
				<v:ud v:nameU="LineColor" v:prompt="" v:val="VT5(#d5d5d5)"/>
				<v:ud v:nameU="visVersion" v:prompt="" v:val="VT0(15):26"/>
			</v:userDefs>
			<title>Подсистема</title>
			<g id="group171-2" v:mID="171" v:groupContext="group" v:layerMember="2">
				<v:userDefs>
					<v:ud v:nameU="msvStructureType" v:prompt="" v:val="VT0(0):26"/>
					<v:ud v:nameU="CStyle" v:prompt="" v:val="VT0(1):26"/>
					<v:ud v:nameU="HSide" v:prompt="" v:val="VT0(0):26"/>
					<v:ud v:nameU="HSpan" v:prompt="" v:val="VT0(0):26"/>
					<v:ud v:nameU="HAlign" v:prompt="" v:val="VT0(0):26"/>
					<v:ud v:nameU="HorzAlign" v:prompt="" v:val="VT0(0):26"/>
					<v:ud v:nameU="SquareCorners" v:prompt="" v:val="VT0(0):26"/>
					<v:ud v:nameU="Corner6" v:prompt="" v:val="VT0(0.19685039370079):24"/>
					<v:ud v:nameU="FillForegndIn" v:prompt="" v:val="VT0(1):26"/>
					<v:ud v:nameU="FillBkgndIn" v:prompt="" v:val="VT0(0):26"/>
					<v:ud v:nameU="FillPatternIn" v:prompt="" v:val="VT0(1):26"/>
					<v:ud v:nameU="BaseColor" v:prompt="" v:val="VT0(1):26"/>
				</v:userDefs>
				<title>Лист.171</title>
				<g id="shape172-3" v:mID="172" v:groupContext="shape" v:layerMember="2" transform="translate(2.83465,2.83465)">
					<title>Лист.172</title>
					<v:userDefs>
						<v:ud v:nameU="msvStructureType" v:prompt="" v:val="VT0(0):26"/>
						<v:ud v:nameU="msvThemeColors" v:prompt="" v:val="VT0(0):26"/>
						<v:ud v:nameU="msvThemeEffects" v:prompt="" v:val="VT0(0):26"/>
						<v:ud v:nameU="CStyle" v:prompt="" v:val="VT0(1):26"/>
						<v:ud v:nameU="HSide" v:prompt="" v:val="VT0(0):26"/>
						<v:ud v:nameU="HSpan" v:prompt="" v:val="VT0(0):26"/>
						<v:ud v:nameU="HAlign" v:prompt="" v:val="VT0(0):26"/>
						<v:ud v:nameU="HorzAlign" v:prompt="" v:val="VT0(0):26"/>
						<v:ud v:nameU="SquareCorners" v:prompt="" v:val="VT0(0):26"/>
						<v:ud v:nameU="OffsetX10" v:prompt="" v:val="VT0(0.039370078740157):24"/>
						<v:ud v:nameU="OffsetY10" v:prompt="" v:val="VT0(-0.039370078740157):24"/>
					</v:userDefs>
				</g>
				<g id="shape171-5" v:mID="171" v:groupContext="groupContent" v:layerMember="2">
					<path d="M0 1647.78 L344 1647.78 L688.01 1647.78 L688.01 728.01 L344 728.01 L0 728.01 L0 1647.78 Z" class="st1"/>
				</g>
			</g>
			<g id="group173-7" transform="translate(0,-894.256)" v:mID="173" v:groupContext="group" v:layerMember="2">
				<v:userDefs>
					<v:ud v:nameU="msvStructureType" v:prompt="" v:val="VT4(Heading)"/>
					<v:ud v:nameU="CStyle" v:prompt="" v:val="VT0(1):26"/>
					<v:ud v:nameU="HSide" v:prompt="" v:val="VT0(0):26"/>
					<v:ud v:nameU="HSpan" v:prompt="" v:val="VT0(0):26"/>
					<v:ud v:nameU="HAlign" v:prompt="" v:val="VT0(0):26"/>
					<v:ud v:nameU="Hidden" v:prompt="" v:val="VT0(0):5"/>
					<v:ud v:nameU="HorzAlign" v:prompt="" v:val="VT0(0):26"/>
					<v:ud v:nameU="Rounding" v:prompt="" v:val="VT0(0):1"/>
					<v:ud v:nameU="SquareCorners" v:prompt="" v:val="VT0(3):26"/>
					<v:ud v:nameU="Inset" v:prompt="" v:val="VT0(0):24"/>
					<v:ud v:nameU="InsideRadius" v:prompt="" v:val="VT0(0):24"/>
					<v:ud v:nameU="InsetXInt" v:prompt="" v:val="VT0(0):24"/>
					<v:ud v:nameU="HTxtMargin" v:prompt="" v:val="VT0(0.059055118110236):24"/>
					<v:ud v:nameU="HTxtWidth" v:prompt="" v:val="VT0(9.5556814466703):1"/>
					<v:ud v:nameU="HLeft" v:prompt="" v:val="VT0(0):26"/>
					<v:ud v:nameU="HRight" v:prompt="" v:val="VT0(9.5556814466703):1"/>
					<v:ud v:nameU="SquareCorners7" v:prompt="" v:val="VT0(3):26"/>
					<v:ud v:nameU="Offset" v:prompt="" v:val="VT0(0):26"/>
					<v:ud v:nameU="Rounding8" v:prompt="" v:val="VT0(0.11811023622047):24"/>
					<v:ud v:nameU="InsetX9" v:prompt="" v:val="VT0(0):26"/>
					<v:ud v:nameU="InsetY9" v:prompt="" v:val="VT0(0):26"/>
					<v:ud v:nameU="OffsetY11" v:prompt="" v:val="VT0(0):26"/>
					<v:ud v:nameU="OffsetY12" v:prompt="" v:val="VT0(0):26"/>
					<v:ud v:nameU="Width12" v:prompt="" v:val="VT0(0):26"/>
					<v:ud v:nameU="msvSDContainerHeadingEdge" v:prompt="" v:val="VT4(Bottom)"/>
					<v:ud v:nameU="HLineVisible" v:prompt="" v:val="VT0(0):5"/>
					<v:ud v:nameU="HFillVisible" v:prompt="" v:val="VT0(0):5"/>
					<v:ud v:nameU="FillForegndIn" v:prompt="" v:val="VT5(#ffffff)"/>
					<v:ud v:nameU="FillBkgndIn" v:prompt="" v:val="VT0(1):26"/>
					<v:ud v:nameU="BaseColor" v:prompt="" v:val="VT0(1):26"/>
					<v:ud v:nameU="FillPatternIn" v:prompt="" v:val="VT0(30):26"/>
					<v:ud v:nameU="BackFillColor" v:prompt="" v:val="VT5(#96afcf)"/>
					<v:ud v:nameU="BackLineColor" v:prompt="" v:val="VT5(#1f477d)"/>
					<v:ud v:nameU="BackCharColor" v:prompt="" v:val="VT5(#000000)"/>
					<v:ud v:nameU="DarkerColor" v:prompt="" v:val="VT5(#000000)"/>
				</v:userDefs>
				<title>Лист.173</title>
				<desc>Система регистрации пациентов</desc>
				<g id="shape174-8" v:mID="174" v:groupContext="shape" v:layerMember="2">
					<title>Лист.174</title>
					<v:userDefs>
						<v:ud v:nameU="msvStructureType" v:prompt="" v:val="VT0(0):26"/>
						<v:ud v:nameU="msvThemeColors" v:prompt="" v:val="VT0(0):26"/>
						<v:ud v:nameU="msvThemeEffects" v:prompt="" v:val="VT0(0):26"/>
						<v:ud v:nameU="CStyle" v:prompt="" v:val="VT0(1):26"/>
						<v:ud v:nameU="Rounding" v:prompt="" v:val="VT0(0):1"/>
						<v:ud v:nameU="SquareCorners" v:prompt="" v:val="VT0(3):26"/>
						<v:ud v:nameU="HLeft" v:prompt="" v:val="VT0(0):26"/>
						<v:ud v:nameU="HRight" v:prompt="" v:val="VT0(9.5556814466703):1"/>
						<v:ud v:nameU="Hidden" v:prompt="" v:val="VT0(0):5"/>
						<v:ud v:nameU="BowHeight7" v:prompt="" v:val="VT0(0.11811023622047):24"/>
						<v:ud v:nameU="Offset7" v:prompt="" v:val="VT0(0.0052083333333333):3"/>
						<v:ud v:nameU="AnchorPt7" v:prompt="" v:val="VT0(0.64439796587927):24"/>
						<v:ud v:nameU="HSide" v:prompt="" v:val="VT0(0):26"/>
						<v:ud v:nameU="HAlign" v:prompt="" v:val="VT0(0):26"/>
					</v:userDefs>
				</g>
				<g id="shape173-12" v:mID="173" v:groupContext="groupContent" v:layerMember="2">
					<v:textBlock v:margins="rect(4,6,4,6)" v:tabSpace="42.5197"/>
					<v:textRect cx="344.005" cy="1635.02" width="688.01" height="25.5118"/>
					<text x="6" y="1639.22" class="st2" v:langID="1049"><v:paragraph/><v:tabList/>Система регистрации пациентов</text>				</g>
			</g>
		</g>
		<g id="shape151-17" v:mID="151" v:groupContext="shape" transform="translate(113.386,-1075.76)">
			<title>Субъект</title>
			<desc>Работник регистратуры</desc>
			<v:userDefs>
				<v:ud v:nameU="visVersion" v:prompt="" v:val="VT0(15):26"/>
			</v:userDefs>
			<v:textBlock v:margins="rect(4,4,4,4)" v:tabSpace="42.5197"/>
			<v:textRect cx="17.0079" cy="1662.58" width="111.71" height="29.6036"/>
			<path d="M6.8 1647.78 L6.8 1612.35 L6.8 1626.52 L0 1626.52 L0 1598.17 L3.4 1594.63 L30.61 1594.63 L34.02 1598.17 L34.02
						 1626.52 L27.21 1626.52 L27.21 1612.35 L27.21 1647.78 L17.01 1647.78 L17.01 1619.43 L17.01 1647.78 L6.8 1647.78
						 ZM24.09 1584 A7.08661 7.08661 -180 1 0 9.92 1584 A7.08661 7.08661 -180 1 0 24.09 1584 Z" class="st1"/>
			<text x="-32.81" y="1667.98" class="st3" v:langID="1049"><v:paragraph v:horizAlign="1"/><v:tabList/>Работник регистратуры</text>		</g>
		<g id="shape153-20" v:mID="153" v:groupContext="shape" transform="translate(198.425,-1075.76)">
			<title>Субъект.153</title>
			<desc>Пациент</desc>
			<v:userDefs>
				<v:ud v:nameU="visVersion" v:prompt="" v:val="VT0(15):26"/>
			</v:userDefs>
			<v:textBlock v:margins="rect(4,4,4,4)" v:tabSpace="42.5197"/>
			<v:textRect cx="17.0079" cy="1662.58" width="48.1" height="29.6036"/>
			<path d="M6.8 1647.78 L6.8 1612.35 L6.8 1626.52 L0 1626.52 L0 1598.17 L3.4 1594.63 L30.61 1594.63 L34.02 1598.17 L34.02
						 1626.52 L27.21 1626.52 L27.21 1612.35 L27.21 1647.78 L17.01 1647.78 L17.01 1619.43 L17.01 1647.78 L6.8 1647.78
						 ZM24.09 1584 A7.08661 7.08661 -180 1 0 9.92 1584 A7.08661 7.08661 -180 1 0 24.09 1584 Z" class="st1"/>
			<text x="-1" y="1667.98" class="st3" v:langID="1049"><v:paragraph v:horizAlign="1"/><v:tabList/>Пациент</text>		</g>
		<g id="shape157-23" v:mID="157" v:groupContext="shape" transform="translate(198.425,-1247.35)">
			<title>Субъект.157</title>
			<desc>Работающий с терминалом</desc>
			<v:userDefs>
				<v:ud v:nameU="visVersion" v:prompt="" v:val="VT0(15):26"/>
			</v:userDefs>
			<v:textBlock v:margins="rect(4,4,4,4)" v:tabSpace="42.5197"/>
			<v:textRect cx="17.0079" cy="1662.58" width="129.11" height="29.6036"/>
			<path d="M6.8 1647.78 L6.8 1612.35 L6.8 1626.52 L0 1626.52 L0 1598.17 L3.4 1594.63 L30.61 1594.63 L34.02 1598.17 L34.02
						 1626.52 L27.21 1626.52 L27.21 1612.35 L27.21 1647.78 L17.01 1647.78 L17.01 1619.43 L17.01 1647.78 L6.8 1647.78
						 ZM24.09 1584 A7.08661 7.08661 -180 1 0 9.92 1584 A7.08661 7.08661 -180 1 0 24.09 1584 Z" class="st1"/>
			<text x="-41.51" y="1667.98" class="st3" v:langID="1049"><v:paragraph v:horizAlign="1"/><v:tabList/>Работающий с терминалом</text>		</g>
		<g id="shape159-26" v:mID="159" v:groupContext="shape" transform="translate(198.425,-949.713)">
			<title>Субъект.159</title>
			<desc>Врач</desc>
			<v:userDefs>
				<v:ud v:nameU="visVersion" v:prompt="" v:val="VT0(15):26"/>
			</v:userDefs>
			<v:textBlock v:margins="rect(4,4,4,4)" v:tabSpace="42.5197"/>
			<v:textRect cx="17.0079" cy="1662.58" width="32.25" height="29.6036"/>
			<path d="M6.8 1647.78 L6.8 1612.35 L6.8 1626.52 L0 1626.52 L0 1598.17 L3.4 1594.63 L30.61 1594.63 L34.02 1598.17 L34.02
						 1626.52 L27.21 1626.52 L27.21 1612.35 L27.21 1647.78 L17.01 1647.78 L17.01 1619.43 L17.01 1647.78 L6.8 1647.78
						 ZM24.09 1584 A7.08661 7.08661 -180 1 0 9.92 1584 A7.08661 7.08661 -180 1 0 24.09 1584 Z" class="st1"/>
			<text x="6.92" y="1667.98" class="st3" v:langID="1049"><v:paragraph v:horizAlign="1"/><v:tabList/>Врач</text>		</g>
		<g id="shape161-29" v:mID="161" v:groupContext="shape" transform="translate(198.425,-732.574)">
			<title>Субъект.161</title>
			<desc>Администратор</desc>
			<v:userDefs>
				<v:ud v:nameU="visVersion" v:prompt="" v:val="VT0(15):26"/>
			</v:userDefs>
			<v:textBlock v:margins="rect(4,4,4,4)" v:tabSpace="42.5197"/>
			<v:textRect cx="17.0079" cy="1662.58" width="78.91" height="29.6036"/>
			<path d="M6.8 1647.78 L6.8 1612.35 L6.8 1626.52 L0 1626.52 L0 1598.17 L3.4 1594.63 L30.61 1594.63 L34.02 1598.17 L34.02
						 1626.52 L27.21 1626.52 L27.21 1612.35 L27.21 1647.78 L17.01 1647.78 L17.01 1619.43 L17.01 1647.78 L6.8 1647.78
						 ZM24.09 1584 A7.08661 7.08661 -180 1 0 9.92 1584 A7.08661 7.08661 -180 1 0 24.09 1584 Z" class="st1"/>
			<text x="-16.41" y="1667.98" class="st3" v:langID="1049"><v:paragraph v:horizAlign="1"/><v:tabList/>Администратор</text>		</g>
		<g id="shape165-32" v:mID="165" v:groupContext="shape" v:layerMember="1" transform="translate(139.174,-1128.91)">
			<title>Обобщение</title>
			<v:userDefs>
				<v:ud v:nameU="visVersion" v:prompt="" v:val="VT0(15):26"/>
			</v:userDefs>
			<path d="M0 1647.78 L61.7 1523.28" class="st4"/>
		</g>
		<g id="shape166-38" v:mID="166" v:groupContext="shape" v:layerMember="1" transform="translate(208.346,-1146.63)">
			<title>Обобщение.166</title>
			<v:userDefs>
				<v:ud v:nameU="visVersion" v:prompt="" v:val="VT0(15):26"/>
			</v:userDefs>
			<path d="M7.09 1647.78 L7.09 1556.86" class="st4"/>
		</g>
		<g id="shape167-43" v:mID="167" v:groupContext="shape" transform="translate(342.711,-1474.12)">
			<title>Вариант использования</title>
			<desc>Показать доступные для записи часы</desc>
			<v:userDefs>
				<v:ud v:nameU="visVersion" v:prompt="" v:val="VT0(15):26"/>
			</v:userDefs>
			<v:textBlock v:margins="rect(4,4,4,4)" v:tabSpace="42.5197"/>
			<v:textRect cx="85.1726" cy="1630.77" width="170.35" height="34.0157"/>
			<ellipse cx="85.1726" cy="1630.77" rx="85.1726" ry="17.0079" class="st1"/>
			<text x="6.04" y="1636.17" class="st3" v:langID="1049"><v:paragraph v:horizAlign="1"/><v:tabList/>Показать доступные для записи часы</text>		</g>
		<g id="shape169-46" v:mID="169" v:groupContext="shape" v:layerMember="1" transform="translate(231.202,-1298.25)">
			<title>Ассоциация</title>
			<v:userDefs>
				<v:ud v:nameU="visVersion" v:prompt="" v:val="VT0(15):26"/>
			</v:userDefs>
			<path d="M0 1647.78 L179.69 1471.56" class="st6"/>
		</g>
		<g id="shape175-49" v:mID="175" v:groupContext="shape" transform="translate(371.191,-1401.84)">
			<title>Вариант использования.175</title>
			<desc>Записать на приём</desc>
			<v:userDefs>
				<v:ud v:nameU="visVersion" v:prompt="" v:val="VT0(15):26"/>
			</v:userDefs>
			<v:textBlock v:margins="rect(4,4,4,4)" v:tabSpace="42.5197"/>
			<v:textRect cx="56.6929" cy="1630.77" width="113.39" height="34.0157"/>
			<ellipse cx="56.6929" cy="1630.77" rx="56.6929" ry="17.0079" class="st1"/>
			<text x="16.7" y="1636.17" class="st3" v:langID="1049"><v:paragraph v:horizAlign="1"/><v:tabList/>Записать на приём</text>		</g>
		<g id="shape177-52" v:mID="177" v:groupContext="shape" v:layerMember="1" transform="translate(232.441,-1293.68)">
			<title>Ассоциация.177</title>
			<v:userDefs>
				<v:ud v:nameU="visVersion" v:prompt="" v:val="VT0(15):26"/>
			</v:userDefs>
			<path d="M0 1647.78 L171.39 1538.01" class="st6"/>
		</g>
		<g id="shape178-55" v:mID="178" v:groupContext="shape" v:layerMember="1" transform="translate(442.797,-1402.44)">
			<title>Включить</title>
			<desc>&#60;&#60;включить&#62;&#62;</desc>
			<v:userDefs>
				<v:ud v:nameU="visVersion" v:prompt="" v:val="VT0(15):26"/>
			</v:userDefs>
			<v:textBlock v:margins="rect(4,4,4,4)" v:tabSpace="42.5197"/>
			<v:textRect cx="181.964" cy="1848" width="70.6" height="20.0036"/>
			<path d="M0 1647.78 L363.93 2048.21" class="st7"/>
			<rect v:rectContext="textBkgnd" x="151.798" y="1842" width="60.332" height="12.0001" class="st8"/>
			<text x="151.8" y="1851" class="st3" v:langID="1049"><v:paragraph v:horizAlign="1"/><v:tabList/>&#60;&#60;включить&#62;&#62;</text>		</g>
		<g id="shape179-63" v:mID="179" v:groupContext="shape" transform="translate(371.191,-1329.56)">
			<title>Вариант использования.179</title>
			<desc>Отменить запись</desc>
			<v:userDefs>
				<v:ud v:nameU="visVersion" v:prompt="" v:val="VT0(15):26"/>
			</v:userDefs>
			<v:textBlock v:margins="rect(4,4,4,4)" v:tabSpace="42.5197"/>
			<v:textRect cx="56.6929" cy="1630.77" width="113.39" height="34.0157"/>
			<ellipse cx="56.6929" cy="1630.77" rx="56.6929" ry="17.0079" class="st1"/>
			<text x="20.51" y="1636.17" class="st3" v:langID="1049"><v:paragraph v:horizAlign="1"/><v:tabList/>Отменить запись</text>		</g>
		<g id="shape183-66" v:mID="183" v:groupContext="shape" v:layerMember="1" transform="translate(232.441,-1287.89)">
			<title>Ассоциация.183</title>
			<v:userDefs>
				<v:ud v:nameU="visVersion" v:prompt="" v:val="VT0(15):26"/>
			</v:userDefs>
			<path d="M0 1647.78 L155.37 1601.14" class="st6"/>
		</g>
		<g id="shape185-69" v:mID="185" v:groupContext="shape" v:layerMember="1" transform="translate(445.513,-1330.4)">
			<title>Включить.185</title>
			<desc>&#60;&#60;включить&#62;&#62;</desc>
			<v:userDefs>
				<v:ud v:nameU="visVersion" v:prompt="" v:val="VT0(15):26"/>
			</v:userDefs>
			<v:textBlock v:margins="rect(4,4,4,4)" v:tabSpace="42.5197"/>
			<v:textRect cx="179.108" cy="1812.01" width="70.6" height="20.0036"/>
			<path d="M0 1647.78 L358.22 1976.24" class="st7"/>
			<rect v:rectContext="textBkgnd" x="148.942" y="1806.01" width="60.332" height="12.0001" class="st8"/>
			<text x="148.94" y="1815.01" class="st3" v:langID="1049"><v:paragraph v:horizAlign="1"/><v:tabList/>&#60;&#60;включить&#62;&#62;</text>		</g>
		<g id="shape186-76" v:mID="186" v:groupContext="shape" transform="translate(371.191,-1257.27)">
			<title>Вариант использования.186</title>
			<desc>Принять оплату услуг</desc>
			<v:userDefs>
				<v:ud v:nameU="visVersion" v:prompt="" v:val="VT0(15):26"/>
			</v:userDefs>
			<v:textBlock v:margins="rect(4,4,4,4)" v:tabSpace="42.5197"/>
			<v:textRect cx="56.6929" cy="1630.77" width="113.39" height="34.0157"/>
			<ellipse cx="56.6929" cy="1630.77" rx="56.6929" ry="17.0079" class="st1"/>
			<text x="11.36" y="1636.17" class="st3" v:langID="1049"><v:paragraph v:horizAlign="1"/><v:tabList/>Принять оплату услуг</text>		</g>
		<g id="shape188-79" v:mID="188" v:groupContext="shape" v:layerMember="1" transform="translate(232.441,-1286.4)">
			<title>Ассоциация.188</title>
			<v:userDefs>
				<v:ud v:nameU="visVersion" v:prompt="" v:val="VT0(15):26"/>
			</v:userDefs>
			<path d="M0 1652.08 L139.25 1657.65" class="st6"/>
		</g>
		<g id="shape189-82" v:mID="189" v:groupContext="shape" transform="translate(302.412,-1184.99)">
			<title>Вариант использования.189</title>
			<desc>Оплата картой</desc>
			<v:userDefs>
				<v:ud v:nameU="visVersion" v:prompt="" v:val="VT0(15):26"/>
			</v:userDefs>
			<v:textBlock v:margins="rect(4,4,4,4)" v:tabSpace="42.5197"/>
			<v:textRect cx="56.6929" cy="1630.77" width="113.39" height="34.0157"/>
			<ellipse cx="56.6929" cy="1630.77" rx="56.6929" ry="17.0079" class="st1"/>
			<text x="25.76" y="1636.17" class="st3" v:langID="1049"><v:paragraph v:horizAlign="1"/><v:tabList/>Оплата картой</text>		</g>
		<g id="shape190-85" v:mID="190" v:groupContext="shape" transform="translate(445.039,-1184.99)">
			<title>Вариант использования.190</title>
			<desc>Оплата наличными</desc>
			<v:userDefs>
				<v:ud v:nameU="visVersion" v:prompt="" v:val="VT0(15):26"/>
			</v:userDefs>
			<v:textBlock v:margins="rect(4,4,4,4)" v:tabSpace="42.5197"/>
			<v:textRect cx="56.6929" cy="1630.77" width="113.39" height="34.0157"/>
			<ellipse cx="56.6929" cy="1630.77" rx="56.6929" ry="17.0079" class="st1"/>
			<text x="15.62" y="1636.17" class="st3" v:langID="1049"><v:paragraph v:horizAlign="1"/><v:tabList/>Оплата наличными</text>		</g>
		<g id="shape193-88" v:mID="193" v:groupContext="shape" v:layerMember="1" transform="translate(374.667,-1218.35)">
			<title>Расширить</title>
			<desc>&#60;&#60;расширить&#62;&#62;</desc>
			<v:userDefs>
				<v:ud v:nameU="visVersion" v:prompt="" v:val="VT0(15):26"/>
			</v:userDefs>
			<v:textBlock v:margins="rect(4,4,4,4)" v:tabSpace="42.5197"/>
			<v:textRect cx="18.8278" cy="1627.99" width="76.38" height="20.0036"/>
			<path d="M0 1647.78 L37.66 1608.21" class="st7"/>
			<rect v:rectContext="textBkgnd" x="-14.2287" y="1621.99" width="66.1133" height="12.0001" class="st8"/>
			<text x="-14.23" y="1630.99" class="st3" v:langID="1049"><v:paragraph v:horizAlign="1"/><v:tabList/>&#60;&#60;расширить&#62;&#62;</text>		</g>
		<g id="shape194-95" v:mID="194" v:groupContext="shape" v:layerMember="1" transform="translate(485.119,-1218.26)">
			<title>Расширить.194</title>
			<desc>&#60;&#60;расширить&#62;&#62;</desc>
			<v:userDefs>
				<v:ud v:nameU="visVersion" v:prompt="" v:val="VT0(15):26"/>
			</v:userDefs>
			<v:textBlock v:margins="rect(4,4,4,4)" v:tabSpace="42.5197"/>
			<v:textRect cx="-20.3109" cy="1627.9" width="76.38" height="20.0036"/>
			<path d="M0 1647.78 L-40.62 1608.02" class="st7"/>
			<rect v:rectContext="textBkgnd" x="-53.3674" y="1621.9" width="66.1133" height="12.0001" class="st8"/>
			<text x="-53.37" y="1630.9" class="st3" v:langID="1049"><v:paragraph v:horizAlign="1"/><v:tabList/>&#60;&#60;расширить&#62;&#62;</text>		</g>
		<g id="shape195-102" v:mID="195" v:groupContext="shape" transform="translate(343.293,-1112.71)">
			<title>Вариант использования.195</title>
			<desc>Показать историю болезни пациента</desc>
			<v:userDefs>
				<v:ud v:nameU="visVersion" v:prompt="" v:val="VT0(15):26"/>
			</v:userDefs>
			<v:textBlock v:margins="rect(4,4,4,4)" v:tabSpace="42.5197"/>
			<v:textRect cx="84.7383" cy="1630.77" width="169.48" height="34.0157"/>
			<ellipse cx="84.7383" cy="1630.77" rx="84.7383" ry="17.0079" class="st1"/>
			<text x="6.04" y="1636.17" class="st3" v:langID="1049"><v:paragraph v:horizAlign="1"/><v:tabList/>Показать историю болезни пациента</text>		</g>
		<g id="shape196-105" v:mID="196" v:groupContext="shape" v:layerMember="1" transform="translate(232.441,-1110.72)">
			<title>Ассоциация.196</title>
			<v:userDefs>
				<v:ud v:nameU="visVersion" v:prompt="" v:val="VT0(15):26"/>
			</v:userDefs>
			<path d="M0 1645.83 L117.86 1635.56" class="st6"/>
		</g>
		<g id="shape198-108" v:mID="198" v:groupContext="shape" v:layerMember="1" transform="translate(232.441,-996.712)">
			<title>Ассоциация.198</title>
			<v:userDefs>
				<v:ud v:nameU="visVersion" v:prompt="" v:val="VT0(15):26"/>
			</v:userDefs>
			<path d="M0 1647.78 L171.6 1531.09" class="st6"/>
		</g>
		<g id="shape199-111" v:mID="199" v:groupContext="shape" transform="translate(342.148,-1040.42)">
			<title>Вариант использования.199</title>
			<desc>Отметить оказанные пациенту услуги</desc>
			<v:userDefs>
				<v:ud v:nameU="visVersion" v:prompt="" v:val="VT0(15):26"/>
			</v:userDefs>
			<v:textBlock v:margins="rect(4,4,4,4)" v:tabSpace="42.5197"/>
			<v:textRect cx="85.8833" cy="1630.77" width="171.77" height="34.0157"/>
			<ellipse cx="85.8833" cy="1630.77" rx="85.8833" ry="17.0079" class="st1"/>
			<text x="6.04" y="1636.17" class="st3" v:langID="1049"><v:paragraph v:horizAlign="1"/><v:tabList/>Отметить оказанные пациенту услуги</text>		</g>
		<g id="shape201-114" v:mID="201" v:groupContext="shape" v:layerMember="1" transform="translate(232.441,-990.929)">
			<title>Ассоциация.201</title>
			<v:userDefs>
				<v:ud v:nameU="visVersion" v:prompt="" v:val="VT0(15):26"/>
			</v:userDefs>
			<path d="M0 1647.78 L152.37 1595.98" class="st6"/>
		</g>
		<g id="shape202-117" v:mID="202" v:groupContext="shape" transform="translate(312.785,-968.139)">
			<title>Вариант использования.202</title>
			<desc>Записать дополнение в историю болезни пациента</desc>
			<v:userDefs>
				<v:ud v:nameU="visVersion" v:prompt="" v:val="VT0(15):26"/>
			</v:userDefs>
			<v:textBlock v:margins="rect(4,4,4,4)" v:tabSpace="42.5197"/>
			<v:textRect cx="115.246" cy="1630.77" width="230.5" height="34.0157"/>
			<ellipse cx="115.246" cy="1630.77" rx="115.246" ry="17.0079" class="st1"/>
			<text x="6.04" y="1636.17" class="st3" v:langID="1049"><v:paragraph v:horizAlign="1"/><v:tabList/>Записать дополнение в историю болезни пациента</text>		</g>
		<g id="shape205-120" v:mID="205" v:groupContext="shape" v:layerMember="1" transform="translate(232.441,-978.06)">
			<title>Ассоциация.205</title>
			<v:userDefs>
				<v:ud v:nameU="visVersion" v:prompt="" v:val="VT0(15):26"/>
			</v:userDefs>
			<path d="M0 1640.69 L80.34 1640.69" class="st6"/>
		</g>
		<g id="shape206-123" v:mID="206" v:groupContext="shape" transform="translate(349.021,-895.855)">
			<title>Вариант использования.206</title>
			<desc>Авторизация персонала в системе</desc>
			<v:userDefs>
				<v:ud v:nameU="visVersion" v:prompt="" v:val="VT0(15):26"/>
			</v:userDefs>
			<v:textBlock v:margins="rect(4,4,4,4)" v:tabSpace="42.5197"/>
			<v:textRect cx="79.0107" cy="1630.77" width="158.03" height="34.0157"/>
			<ellipse cx="79.0107" cy="1630.77" rx="79.0107" ry="17.0079" class="st1"/>
			<text x="6.04" y="1636.17" class="st3" v:langID="1049"><v:paragraph v:horizAlign="1"/><v:tabList/>Авторизация персонала в системе</text>		</g>
		<g id="shape207-126" v:mID="207" v:groupContext="shape" v:layerMember="1" transform="translate(232.441,-979.364)">
			<title>Ассоциация.207</title>
			<v:userDefs>
				<v:ud v:nameU="visVersion" v:prompt="" v:val="VT0(15):26"/>
			</v:userDefs>
			<path d="M0 1647.78 L153.33 1699.91" class="st6"/>
		</g>
		<g id="shape208-129" v:mID="208" v:groupContext="shape" v:layerMember="1" transform="translate(232.441,-779.596)">
			<title>Ассоциация.208</title>
			<v:userDefs>
				<v:ud v:nameU="visVersion" v:prompt="" v:val="VT0(15):26"/>
			</v:userDefs>
			<path d="M0 1647.78 L171.79 1530.73" class="st6"/>
		</g>
		<g id="shape210-132" v:mID="210" v:groupContext="shape" transform="translate(705.59,-968.139)">
			<title>Вариант использования.210</title>
			<desc>Изменить доступные для записи часы в расписании</desc>
			<v:userDefs>
				<v:ud v:nameU="visVersion" v:prompt="" v:val="VT0(15):26"/>
			</v:userDefs>
			<v:textBlock v:margins="rect(4,4,4,4)" v:tabSpace="42.5197"/>
			<v:textRect cx="116.457" cy="1630.77" width="232.92" height="34.0157"/>
			<ellipse cx="116.457" cy="1630.77" rx="116.457" ry="17.0079" class="st1"/>
			<text x="6.04" y="1636.17" class="st3" v:langID="1049"><v:paragraph v:horizAlign="1"/><v:tabList/>Изменить доступные для записи часы в расписании</text>		</g>
		<g id="shape213-135" v:mID="213" v:groupContext="shape" v:layerMember="1" transform="translate(232.441,-774.095)">
			<title>Ассоциация.213</title>
			<v:userDefs>
				<v:ud v:nameU="visVersion" v:prompt="" v:val="VT0(15):26"/>
			</v:userDefs>
			<path d="M0 1647.78 L545.61 1452.48" class="st6"/>
		</g>
		<g id="shape216-138" v:mID="216" v:groupContext="shape" transform="translate(332.016,-751.288)">
			<title>Вариант использования.216</title>
			<desc>Фиксация отсутствия врача на рабочем месте</desc>
			<v:userDefs>
				<v:ud v:nameU="visVersion" v:prompt="" v:val="VT0(15):26"/>
			</v:userDefs>
			<v:textBlock v:margins="rect(4,4,4,4)" v:tabSpace="42.5197"/>
			<v:textRect cx="103.059" cy="1630.77" width="206.12" height="34.0157"/>
			<ellipse cx="103.059" cy="1630.77" rx="103.059" ry="17.0079" class="st1"/>
			<text x="6.04" y="1636.17" class="st3" v:langID="1049"><v:paragraph v:horizAlign="1"/><v:tabList/>Фиксация отсутствия врача на рабочем месте</text>		</g>
		<g id="shape219-141" v:mID="219" v:groupContext="shape" v:layerMember="1" transform="translate(464.19,-784.611)">
			<title>Включить.219</title>
			<desc>&#60;&#60;включить&#62;&#62;</desc>
			<v:userDefs>
				<v:ud v:nameU="visVersion" v:prompt="" v:val="VT0(15):26"/>
			</v:userDefs>
			<v:textBlock v:margins="rect(4,4,4,4)" v:tabSpace="42.5197"/>
			<v:textRect cx="164.244" cy="1555.74" width="70.6" height="20.0036"/>
			<path d="M0 1647.78 L328.49 1463.7" class="st7"/>
			<rect v:rectContext="textBkgnd" x="134.078" y="1549.74" width="60.332" height="12.0001" class="st8"/>
			<text x="134.08" y="1558.74" class="st3" v:langID="1049"><v:paragraph v:horizAlign="1"/><v:tabList/>&#60;&#60;включить&#62;&#62;</text>		</g>
		<g id="shape220-148" v:mID="220" v:groupContext="shape" v:layerMember="1" transform="translate(232.441,-761.008)">
			<title>Ассоциация.220</title>
			<v:userDefs>
				<v:ud v:nameU="visVersion" v:prompt="" v:val="VT0(15):26"/>
			</v:userDefs>
			<path d="M0 1640.76 L99.58 1640.63" class="st6"/>
		</g>
		<g id="shape223-151" v:mID="223" v:groupContext="shape" transform="translate(330.271,-679.005)">
			<title>Вариант использования.223</title>
			<desc>Показать список неблагонадёжных пациентов</desc>
			<v:userDefs>
				<v:ud v:nameU="visVersion" v:prompt="" v:val="VT0(15):26"/>
			</v:userDefs>
			<v:textBlock v:margins="rect(4,4,4,4)" v:tabSpace="42.5197"/>
			<v:textRect cx="104.804" cy="1630.77" width="209.61" height="34.0157"/>
			<ellipse cx="104.804" cy="1630.77" rx="104.804" ry="17.0079" class="st1"/>
			<text x="6.04" y="1636.17" class="st3" v:langID="1049"><v:paragraph v:horizAlign="1"/><v:tabList/>Показать список неблагонадёжных пациентов</text>		</g>
		<g id="shape225-154" v:mID="225" v:groupContext="shape" v:layerMember="1" transform="translate(232.441,-762.432)">
			<title>Ассоциация.225</title>
			<v:userDefs>
				<v:ud v:nameU="visVersion" v:prompt="" v:val="VT0(15):26"/>
			</v:userDefs>
			<path d="M0 1647.78 L156.13 1698.96" class="st6"/>
		</g>
		<g id="shape226-157" v:mID="226" v:groupContext="shape" transform="translate(742.864,-1401.84)">
			<title>Вариант использования.226</title>
			<desc>Заблокировать пациента</desc>
			<v:userDefs>
				<v:ud v:nameU="visVersion" v:prompt="" v:val="VT0(15):26"/>
			</v:userDefs>
			<v:textBlock v:margins="rect(4,4,4,4)" v:tabSpace="42.5197"/>
			<v:textRect cx="59.0421" cy="1630.77" width="118.09" height="34.0157"/>
			<ellipse cx="59.0421" cy="1630.77" rx="59.0421" ry="17.0079" class="st1"/>
			<text x="6.04" y="1636.17" class="st3" v:langID="1049"><v:paragraph v:horizAlign="1"/><v:tabList/>Заблокировать пациента</text>		</g>
		<g id="shape228-160" v:mID="228" v:groupContext="shape" transform="translate(977.953,-1383.41)">
			<title>Субъект.228</title>
			<desc>Время</desc>
			<v:userDefs>
				<v:ud v:nameU="visVersion" v:prompt="" v:val="VT0(15):26"/>
			</v:userDefs>
			<v:textBlock v:margins="rect(4,4,4,4)" v:tabSpace="42.5197"/>
			<v:textRect cx="17.0079" cy="1662.58" width="39.25" height="29.6036"/>
			<path d="M6.8 1647.78 L6.8 1612.35 L6.8 1626.52 L0 1626.52 L0 1598.17 L3.4 1594.63 L30.61 1594.63 L34.02 1598.17 L34.02
						 1626.52 L27.21 1626.52 L27.21 1612.35 L27.21 1647.78 L17.01 1647.78 L17.01 1619.43 L17.01 1647.78 L6.8 1647.78
						 ZM24.09 1584 A7.08661 7.08661 -180 1 0 9.92 1584 A7.08661 7.08661 -180 1 0 24.09 1584 Z" class="st1"/>
			<text x="3.42" y="1667.98" class="st3" v:langID="1049"><v:paragraph v:horizAlign="1"/><v:tabList/>Время</text>		</g>
		<g id="shape230-163" v:mID="230" v:groupContext="shape" v:layerMember="1" transform="translate(860.948,-1411.76)">
			<title>Ассоциация.230</title>
			<v:userDefs>
				<v:ud v:nameU="visVersion" v:prompt="" v:val="VT0(15):26"/>
			</v:userDefs>
			<path d="M0 1640.69 L117 1640.69" class="st6"/>
		</g>
	</g>
</svg>
